module my-go-app

go 1.15

require (
	github.com/coreos/go-oidc v2.2.1+incompatible
	github.com/google/uuid v1.2.0
	github.com/pquerna/cachecontrol v0.0.0-20201205024021-ac21108117ac // indirect
	github.com/thomasdarimont/go-kc-example v0.0.0-20170529223628-e3951d8faa4c
	golang.org/x/oauth2 v0.0.0-20210220000619-9bb904979d93
	gopkg.in/square/go-jose.v2 v2.5.1 // indirect
)
